week 1/top_week5.vcd
$date
	Sat Jun 20 16:04:41 2026
$end
$version
	Icarus Verilog
$end
$timescale
	1ps
$end
$scope module tb_top_week5 $end
$var reg 1 ! clk $end
$var reg 1 " reset $end
$scope module uut $end
$var wire 4 # alu_ctrl [3:0] $end
$var wire 32 $ alu_result [31:0] $end
$var wire 1 ! clk $end
$var wire 32 % mem_data [31:0] $end
$var wire 1 " reset $end
$var wire 32 & rs2_data [31:0] $end
$var wire 32 ' wb_data [31:0] $end
$var wire 32 ( rs1_data [31:0] $end
$var wire 32 ) pc_out [31:0] $end
$var wire 32 * pc_next [31:0] $end
$var wire 32 + pc_id [31:0] $end
$var wire 32 , instr_id [31:0] $end
$var wire 32 - instr [31:0] $end
$var wire 32 . imm [31:0] $end
$scope module AC $end
$var wire 3 / funct3 [2:0] $end
$var wire 7 0 funct7 [6:0] $end
$var wire 7 1 opcode [6:0] $end
$var reg 4 2 alu_ctrl [3:0] $end
$upscope $end
$scope module ALU $end
$var wire 4 3 alu_ctrl [3:0] $end
$var wire 32 4 b [31:0] $end
$var wire 1 5 zero $end
$var wire 32 6 a [31:0] $end
$var reg 32 7 result [31:0] $end
$upscope $end
$scope module DEC $end
$var wire 5 8 rs2 [4:0] $end
$var wire 5 9 rs1 [4:0] $end
$var wire 5 : rd [4:0] $end
$var wire 7 ; opcode [6:0] $end
$var wire 32 < instr [31:0] $end
$var wire 7 = funct7 [6:0] $end
$var wire 3 > funct3 [2:0] $end
$upscope $end
$scope module DM $end
$var wire 32 ? addr [31:0] $end
$var wire 1 ! clk $end
$var wire 1 @ mem_read $end
$var wire 1 A mem_write $end
$var wire 32 B write_data [31:0] $end
$var reg 32 C read_data [31:0] $end
$upscope $end
$scope module EXMEM $end
$var wire 32 D alu_result_in [31:0] $end
$var wire 32 E alu_result_out [31:0] $end
$var wire 1 ! clk $end
$var wire 1 " reset $end
$var wire 32 F rs2_data_in [31:0] $end
$var wire 32 G rs2_data_out [31:0] $end
$scope module ALU_REG $end
$var wire 1 ! clk $end
$var wire 32 H in_data [31:0] $end
$var wire 1 " reset $end
$var parameter 32 I WIDTH $end
$var reg 32 J out_data [31:0] $end
$upscope $end
$scope module RS2_REG $end
$var wire 1 ! clk $end
$var wire 32 K in_data [31:0] $end
$var wire 1 " reset $end
$var parameter 32 L WIDTH $end
$var reg 32 M out_data [31:0] $end
$upscope $end
$upscope $end
$scope module IDEX $end
$var wire 4 N alu_ctrl_in [3:0] $end
$var wire 4 O alu_ctrl_out [3:0] $end
$var wire 1 ! clk $end
$var wire 1 " reset $end
$var wire 32 P rs2_data_in [31:0] $end
$var wire 32 Q rs2_data_out [31:0] $end
$var wire 32 R rs1_data_out [31:0] $end
$var wire 32 S rs1_data_in [31:0] $end
$var wire 32 T imm_out [31:0] $end
$var wire 32 U imm_in [31:0] $end
$scope module ALU_CTRL_REG $end
$var wire 1 ! clk $end
$var wire 4 V in_data [3:0] $end
$var wire 1 " reset $end
$var parameter 32 W WIDTH $end
$var reg 4 X out_data [3:0] $end
$upscope $end
$scope module IMM_REG $end
$var wire 1 ! clk $end
$var wire 1 " reset $end
$var wire 32 Y in_data [31:0] $end
$var parameter 32 Z WIDTH $end
$var reg 32 [ out_data [31:0] $end
$upscope $end
$scope module RS1_REG $end
$var wire 1 ! clk $end
$var wire 1 " reset $end
$var wire 32 \ in_data [31:0] $end
$var parameter 32 ] WIDTH $end
$var reg 32 ^ out_data [31:0] $end
$upscope $end
$scope module RS2_REG $end
$var wire 1 ! clk $end
$var wire 32 _ in_data [31:0] $end
$var wire 1 " reset $end
$var parameter 32 ` WIDTH $end
$var reg 32 a out_data [31:0] $end
$upscope $end
$upscope $end
$scope module IFID $end
$var wire 1 ! clk $end
$var wire 1 " reset $end
$var wire 32 b pc_out [31:0] $end
$var wire 32 c pc_in [31:0] $end
$var wire 32 d instr_out [31:0] $end
$var wire 32 e instr_in [31:0] $end
$scope module INSTR_REG $end
$var wire 1 ! clk $end
$var wire 1 " reset $end
$var wire 32 f in_data [31:0] $end
$var parameter 32 g WIDTH $end
$var reg 32 h out_data [31:0] $end
$upscope $end
$scope module PC_REG $end
$var wire 1 ! clk $end
$var wire 1 " reset $end
$var wire 32 i in_data [31:0] $end
$var parameter 32 j WIDTH $end
$var reg 32 k out_data [31:0] $end
$upscope $end
$upscope $end
$scope module IM $end
$var wire 32 l instr [31:0] $end
$var wire 32 m addr [31:0] $end
$upscope $end
$scope module MEMWB $end
$var wire 32 n alu_result_in [31:0] $end
$var wire 32 o alu_result_out [31:0] $end
$var wire 1 ! clk $end
$var wire 32 p mem_data_in [31:0] $end
$var wire 32 q mem_data_out [31:0] $end
$var wire 1 " reset $end
$scope module ALU_REG $end
$var wire 1 ! clk $end
$var wire 32 r in_data [31:0] $end
$var wire 1 " reset $end
$var parameter 32 s WIDTH $end
$var reg 32 t out_data [31:0] $end
$upscope $end
$scope module MEM_REG $end
$var wire 1 ! clk $end
$var wire 32 u in_data [31:0] $end
$var wire 1 " reset $end
$var parameter 32 v WIDTH $end
$var reg 32 w out_data [31:0] $end
$upscope $end
$upscope $end
$scope module PC $end
$var wire 1 ! clk $end
$var wire 32 x pc_next [31:0] $end
$var wire 1 " reset $end
$var reg 32 y pc_out [31:0] $end
$upscope $end
$scope module WB $end
$var wire 32 z alu_result [31:0] $end
$var wire 32 { mem_data [31:0] $end
$var wire 1 | mem_to_reg $end
$var wire 32 } wb_data [31:0] $end
$upscope $end
$upscope $end
$upscope $end
$enddefinitions $end
$comment Show the parameter values. $end
$dumpall
b100000 v
b100000 s
b100000 j
b100000 g
b100000 `
b100000 ]
b100000 Z
b100 W
b100000 L
b100000 I
$end
#0
$dumpvars
b0 }
z|
b0 {
b0 z
b0 y
b100 x
b0 w
b0 u
b0 t
b0 r
b0 q
b0 p
b0 o
b0 n
b0 m
b110011 l
b0 k
b0 i
b0 h
b110011 f
b110011 e
b0 d
b0 c
b0 b
b0 a
b0 _
b0 ^
b0 \
b0 [
b0 Y
b0 X
bx V
b0 U
b0 T
b0 S
b0 R
b0 Q
b0 P
bx O
bx N
b0 M
b0 K
b0 J
b0 H
b0 G
b0 F
b0 E
b0 D
b0 C
b0 B
zA
z@
b0 ?
b0 >
b0 =
b0 <
b0 ;
b0 :
b0 9
b0 8
b0 7
b0 6
15
b0 4
bx 3
b1111 2
bz 1
bz 0
bz /
b0 .
b110011 -
b0 ,
b0 +
b100 *
b0 )
b0 (
b0 '
b0 &
b0 %
b0 $
bx #
1"
0!
$end
#5000
1!
#10000
0!
0"
#15000
b1000001000000110110011 -
b1000001000000110110011 e
b1000001000000110110011 f
b1000001000000110110011 l
b110011 ;
b1000 *
b1000 x
b100 )
b100 c
b100 i
b100 m
b100 y
b110011 ,
b110011 <
b110011 d
b110011 h
bx X
1!
#20000
0!
#25000
b10 8
b1 9
b11 :
b1100010000001000110011 -
b1100010000001000110011 e
b1100010000001000110011 f
b1100010000001000110011 l
b1000001000000110110011 ,
b1000001000000110110011 <
b1000001000000110110011 d
b1000001000000110110011 h
b100 +
b100 b
b100 k
b1100 *
b1100 x
b1000 )
b1000 c
b1000 i
b1000 m
b1000 y
1!
#30000
0!
#35000
bx -
bx e
bx f
bx l
b11 8
b10 9
b100 :
b10000 *
b10000 x
b1100 )
b1100 c
b1100 i
b1100 m
b1100 y
b1000 +
b1000 b
b1000 k
b1100010000001000110011 ,
b1100010000001000110011 <
b1100010000001000110011 d
b1100010000001000110011 h
1!
#40000
0!
#45000
bx =
bx 8
bx 9
bx >
bx :
bx ;
bx ,
bx <
bx d
bx h
b1100 +
b1100 b
b1100 k
b10100 *
b10100 x
b10000 )
b10000 c
b10000 i
b10000 m
b10000 y
1!
#50000
0!
#55000
b11000 *
b11000 x
b10100 )
b10100 c
b10100 i
b10100 m
b10100 y
b10000 +
b10000 b
b10000 k
1!
#60000
0!
#65000
b10100 +
b10100 b
b10100 k
b11100 *
b11100 x
b11000 )
b11000 c
b11000 i
b11000 m
b11000 y
1!
#70000
0!
#75000
b100000 *
b100000 x
b11100 )
b11100 c
b11100 i
b11100 m
b11100 y
b11000 +
b11000 b
b11000 k
1!
#80000
0!
#85000
b11100 +
b11100 b
b11100 k
b100100 *
b100100 x
b100000 )
b100000 c
b100000 i
b100000 m
b100000 y
1!
#90000
0!
#95000
b101000 *
b101000 x
b100100 )
b100100 c
b100100 i
b100100 m
b100100 y
b100000 +
b100000 b
b100000 k
1!
#100000
0!
#105000
b100100 +
b100100 b
b100100 k
b101100 *
b101100 x
b101000 )
b101000 c
b101000 i
b101000 m
b101000 y
1!
#110000
0!
#115000
b110000 *
b110000 x
b101100 )
b101100 c
b101100 i
b101100 m
b101100 y
b101000 +
b101000 b
b101000 k
1!
#120000
0!
#125000
b101100 +
b101100 b
b101100 k
b110100 *
b110100 x
b110000 )
b110000 c
b110000 i
b110000 m
b110000 y
1!
#130000
0!
#135000
b111000 *
b111000 x
b110100 )
b110100 c
b110100 i
b110100 m
b110100 y
b110000 +
b110000 b
b110000 k
1!
#140000
0!
#145000
b110100 +
b110100 b
b110100 k
b111100 *
b111100 x
b111000 )
b111000 c
b111000 i
b111000 m
b111000 y
1!
#150000
0!
#155000
b1000000 *
b1000000 x
b111100 )
b111100 c
b111100 i
b111100 m
b111100 y
b111000 +
b111000 b
b111000 k
1!
#160000
0!
#165000
b111100 +
b111100 b
b111100 k
b1000100 *
b1000100 x
b1000000 )
b1000000 c
b1000000 i
b1000000 m
b1000000 y
1!
#170000
0!
#175000
b1001000 *
b1001000 x
b1000100 )
b1000100 c
b1000100 i
b1000100 m
b1000100 y
b1000000 +
b1000000 b
b1000000 k
1!
#180000
0!
#185000
b1000100 +
b1000100 b
b1000100 k
b1001100 *
b1001100 x
b1001000 )
b1001000 c
b1001000 i
b1001000 m
b1001000 y
1!
#190000
0!
#195000
b1010000 *
b1010000 x
b1001100 )
b1001100 c
b1001100 i
b1001100 m
b1001100 y
b1001000 +
b1001000 b
b1001000 k
1!
#200000
0!
#205000
b1001100 +
b1001100 b
b1001100 k
b1010100 *
b1010100 x
b1010000 )
b1010000 c
b1010000 i
b1010000 m
b1010000 y
1!
#210000
0!
#215000
b1011000 *
b1011000 x
b1010100 )
b1010100 c
b1010100 i
b1010100 m
b1010100 y
b1010000 +
b1010000 b
b1010000 k
1!
#220000
0!
#225000
b1010100 +
b1010100 b
b1010100 k
b1011100 *
b1011100 x
b1011000 )
b1011000 c
b1011000 i
b1011000 m
b1011000 y
1!
#230000
0!
#235000
b1100000 *
b1100000 x
b1011100 )
b1011100 c
b1011100 i
b1011100 m
b1011100 y
b1011000 +
b1011000 b
b1011000 k
1!
#240000
0!
#245000
b1011100 +
b1011100 b
b1011100 k
b1100100 *
b1100100 x
b1100000 )
b1100000 c
b1100000 i
b1100000 m
b1100000 y
1!
#250000
0!
#255000
b1101000 *
b1101000 x
b1100100 )
b1100100 c
b1100100 i
b1100100 m
b1100100 y
b1100000 +
b1100000 b
b1100000 k
1!
#260000
0!
#265000
b1100100 +
b1100100 b
b1100100 k
b1101100 *
b1101100 x
b1101000 )
b1101000 c
b1101000 i
b1101000 m
b1101000 y
1!
#270000
0!
#275000
b1110000 *
b1110000 x
b1101100 )
b1101100 c
b1101100 i
b1101100 m
b1101100 y
b1101000 +
b1101000 b
b1101000 k
1!
#280000
0!
#285000
b1101100 +
b1101100 b
b1101100 k
b1110100 *
b1110100 x
b1110000 )
b1110000 c
b1110000 i
b1110000 m
b1110000 y
1!
#290000
0!
#295000
b1111000 *
b1111000 x
b1110100 )
b1110100 c
b1110100 i
b1110100 m
b1110100 y
b1110000 +
b1110000 b
b1110000 k
1!
#300000
0!
#305000
b1110100 +
b1110100 b
b1110100 k
b1111100 *
b1111100 x
b1111000 )
b1111000 c
b1111000 i
b1111000 m
b1111000 y
1!
