week 1/top_week7.vcd
$date
	Sat Jun 20 16:47:13 2026
$end
$version
	Icarus Verilog
$end
$timescale
	1ps
$end
$scope module tb_top_week7 $end
$var reg 1 ! clk $end
$var reg 1 " reset $end
$scope module uut $end
$var wire 1 ! clk $end
$var wire 1 # instr_complete $end
$var wire 1 $ mem_read_ex $end
$var wire 1 % mem_to_reg_wb $end
$var wire 1 & mem_write_ex $end
$var wire 5 ' rd_ex [4:0] $end
$var wire 5 ( rd_mem [4:0] $end
$var wire 5 ) rd_wb [4:0] $end
$var wire 1 * reg_write_mem $end
$var wire 1 + reg_write_wb $end
$var wire 1 " reset $end
$var wire 32 , wb_data [31:0] $end
$var wire 1 - stall $end
$var wire 32 . rs2_mem [31:0] $end
$var wire 32 / rs2_ex [31:0] $end
$var wire 32 0 rs2_data [31:0] $end
$var wire 5 1 rs2 [4:0] $end
$var wire 32 2 rs1_ex [31:0] $end
$var wire 32 3 rs1_data [31:0] $end
$var wire 5 4 rs1 [4:0] $end
$var wire 5 5 rd [4:0] $end
$var wire 32 6 pc_out [31:0] $end
$var wire 32 7 pc_next [31:0] $end
$var wire 32 8 pc_id [31:0] $end
$var wire 7 9 opcode [6:0] $end
$var wire 32 : mem_data_wb [31:0] $end
$var wire 32 ; mem_data [31:0] $end
$var wire 32 < instr_id [31:0] $end
$var wire 32 = instr_count [31:0] $end
$var wire 32 > instr [31:0] $end
$var wire 32 ? imm_ex [31:0] $end
$var wire 32 @ imm [31:0] $end
$var wire 7 A funct7 [6:0] $end
$var wire 3 B funct3 [2:0] $end
$var wire 2 C forward_b [1:0] $end
$var wire 2 D forward_a [1:0] $end
$var wire 32 E cycle_count [31:0] $end
$var wire 1 F branch_taken $end
$var wire 1 G alu_zero $end
$var wire 32 H alu_result_wb [31:0] $end
$var wire 32 I alu_result_mem [31:0] $end
$var wire 32 J alu_result [31:0] $end
$var wire 32 K alu_in2 [31:0] $end
$var wire 32 L alu_in1 [31:0] $end
$var wire 4 M alu_ctrl_ex [3:0] $end
$var wire 4 N alu_ctrl [3:0] $end
$scope module AC $end
$var wire 7 O opcode [6:0] $end
$var wire 7 P funct7 [6:0] $end
$var wire 3 Q funct3 [2:0] $end
$var reg 4 R alu_ctrl [3:0] $end
$upscope $end
$scope module ALU $end
$var wire 32 S a [31:0] $end
$var wire 32 T b [31:0] $end
$var wire 1 G zero $end
$var wire 4 U alu_ctrl [3:0] $end
$var reg 32 V result [31:0] $end
$upscope $end
$scope module BC $end
$var wire 32 W a [31:0] $end
$var wire 32 X b [31:0] $end
$var wire 3 Y funct3 [2:0] $end
$var reg 1 F branch_taken $end
$upscope $end
$scope module DEC $end
$var wire 5 Z rs2 [4:0] $end
$var wire 5 [ rs1 [4:0] $end
$var wire 5 \ rd [4:0] $end
$var wire 7 ] opcode [6:0] $end
$var wire 32 ^ instr [31:0] $end
$var wire 7 _ funct7 [6:0] $end
$var wire 3 ` funct3 [2:0] $end
$upscope $end
$scope module DM $end
$var wire 1 ! clk $end
$var wire 1 $ mem_read $end
$var wire 1 & mem_write $end
$var wire 32 a write_data [31:0] $end
$var wire 32 b addr [31:0] $end
$var reg 32 c read_data [31:0] $end
$upscope $end
$scope module EXMEM $end
$var wire 32 d alu_result_in [31:0] $end
$var wire 1 ! clk $end
$var wire 1 " reset $end
$var wire 32 e rs2_data_out [31:0] $end
$var wire 32 f rs2_data_in [31:0] $end
$var wire 32 g alu_result_out [31:0] $end
$scope module ALU_REG $end
$var wire 1 ! clk $end
$var wire 32 h in_data [31:0] $end
$var wire 1 " reset $end
$var parameter 32 i WIDTH $end
$var reg 32 j out_data [31:0] $end
$upscope $end
$scope module RS2_REG $end
$var wire 1 ! clk $end
$var wire 1 " reset $end
$var wire 32 k in_data [31:0] $end
$var parameter 32 l WIDTH $end
$var reg 32 m out_data [31:0] $end
$upscope $end
$upscope $end
$scope module FU $end
$var wire 5 n rd_mem [4:0] $end
$var wire 5 o rd_wb [4:0] $end
$var wire 1 * reg_write_mem $end
$var wire 1 + reg_write_wb $end
$var wire 5 p rs1_ex [4:0] $end
$var wire 5 q rs2_ex [4:0] $end
$var reg 2 r forward_a [1:0] $end
$var reg 2 s forward_b [1:0] $end
$upscope $end
$scope module HU $end
$var wire 1 $ mem_read_ex $end
$var wire 5 t rd_ex [4:0] $end
$var wire 5 u rs1 [4:0] $end
$var wire 5 v rs2 [4:0] $end
$var reg 1 - stall $end
$upscope $end
$scope module IDEX $end
$var wire 4 w alu_ctrl_in [3:0] $end
$var wire 1 ! clk $end
$var wire 1 " reset $end
$var wire 32 x rs2_data_out [31:0] $end
$var wire 32 y rs2_data_in [31:0] $end
$var wire 32 z rs1_data_out [31:0] $end
$var wire 32 { rs1_data_in [31:0] $end
$var wire 32 | imm_out [31:0] $end
$var wire 32 } imm_in [31:0] $end
$var wire 4 ~ alu_ctrl_out [3:0] $end
$scope module ALU_CTRL_REG $end
$var wire 1 ! clk $end
$var wire 4 !" in_data [3:0] $end
$var wire 1 " reset $end
$var parameter 32 "" WIDTH $end
$var reg 4 #" out_data [3:0] $end
$upscope $end
$scope module IMM_REG $end
$var wire 1 ! clk $end
$var wire 1 " reset $end
$var wire 32 $" in_data [31:0] $end
$var parameter 32 %" WIDTH $end
$var reg 32 &" out_data [31:0] $end
$upscope $end
$scope module RS1_REG $end
$var wire 1 ! clk $end
$var wire 1 " reset $end
$var wire 32 '" in_data [31:0] $end
$var parameter 32 (" WIDTH $end
$var reg 32 )" out_data [31:0] $end
$upscope $end
$scope module RS2_REG $end
$var wire 1 ! clk $end
$var wire 1 " reset $end
$var wire 32 *" in_data [31:0] $end
$var parameter 32 +" WIDTH $end
$var reg 32 ," out_data [31:0] $end
$upscope $end
$upscope $end
$scope module IFID $end
$var wire 1 ! clk $end
$var wire 1 " reset $end
$var wire 32 -" pc_out [31:0] $end
$var wire 32 ." pc_in [31:0] $end
$var wire 32 /" instr_out [31:0] $end
$var wire 32 0" instr_in [31:0] $end
$scope module INSTR_REG $end
$var wire 1 ! clk $end
$var wire 1 " reset $end
$var wire 32 1" in_data [31:0] $end
$var parameter 32 2" WIDTH $end
$var reg 32 3" out_data [31:0] $end
$upscope $end
$scope module PC_REG $end
$var wire 1 ! clk $end
$var wire 1 " reset $end
$var wire 32 4" in_data [31:0] $end
$var parameter 32 5" WIDTH $end
$var reg 32 6" out_data [31:0] $end
$upscope $end
$upscope $end
$scope module IG $end
$var wire 32 7" instr [31:0] $end
$var reg 32 8" imm_out [31:0] $end
$upscope $end
$scope module IM $end
$var wire 32 9" instr [31:0] $end
$var wire 32 :" addr [31:0] $end
$upscope $end
$scope module MEMWB $end
$var wire 32 ;" alu_result_in [31:0] $end
$var wire 1 ! clk $end
$var wire 32 <" mem_data_in [31:0] $end
$var wire 1 " reset $end
$var wire 32 =" mem_data_out [31:0] $end
$var wire 32 >" alu_result_out [31:0] $end
$scope module ALU_REG $end
$var wire 1 ! clk $end
$var wire 32 ?" in_data [31:0] $end
$var wire 1 " reset $end
$var parameter 32 @" WIDTH $end
$var reg 32 A" out_data [31:0] $end
$upscope $end
$scope module MEM_REG $end
$var wire 1 ! clk $end
$var wire 32 B" in_data [31:0] $end
$var wire 1 " reset $end
$var parameter 32 C" WIDTH $end
$var reg 32 D" out_data [31:0] $end
$upscope $end
$upscope $end
$scope module PC $end
$var wire 1 ! clk $end
$var wire 32 E" pc_next [31:0] $end
$var wire 1 " reset $end
$var reg 32 F" pc_out [31:0] $end
$upscope $end
$scope module PERF $end
$var wire 1 ! clk $end
$var wire 1 # instr_complete $end
$var wire 1 " reset $end
$var reg 32 G" cycle_count [31:0] $end
$var reg 32 H" instr_count [31:0] $end
$upscope $end
$scope module RF $end
$var wire 1 ! clk $end
$var wire 5 I" rd [4:0] $end
$var wire 5 J" rs1 [4:0] $end
$var wire 5 K" rs2 [4:0] $end
$var wire 1 + we $end
$var wire 32 L" wd [31:0] $end
$var wire 32 M" rd2 [31:0] $end
$var wire 32 N" rd1 [31:0] $end
$upscope $end
$scope module WB $end
$var wire 32 O" alu_result [31:0] $end
$var wire 32 P" mem_data [31:0] $end
$var wire 1 % mem_to_reg $end
$var wire 32 Q" wb_data [31:0] $end
$upscope $end
$upscope $end
$upscope $end
$enddefinitions $end
$comment Show the parameter values. $end
$dumpall
b100000 C"
b100000 @"
b100000 5"
b100000 2"
b100000 +"
b100000 ("
b100000 %"
b100 ""
b100000 l
b100000 i
$end
#0
$dumpvars
b0 Q"
b0 P"
b0 O"
b0 N"
b0 M"
b0 L"
b0 K"
b0 J"
b0 I"
b0 H"
b0 G"
b0 F"
b100 E"
b0 D"
b0 B"
b0 A"
b0 ?"
b0 >"
b0 ="
b0 <"
b0 ;"
b0 :"
b110011 9"
b0 8"
b0 7"
b0 6"
b0 4"
b0 3"
b110011 1"
b110011 0"
b0 /"
b0 ."
b0 -"
b0 ,"
b0 *"
b0 )"
b0 '"
b0 &"
b0 $"
b0 #"
b1111 !"
b0 ~
b0 }
b0 |
b0 {
b0 z
b0 y
b0 x
b1111 w
b0 v
b0 u
b0 t
b0 s
b0 r
b0 q
b0 p
b0 o
b0 n
b0 m
b0 k
b0 j
b0 h
b0 g
b0 f
b0 e
b0 d
b0 c
b0 b
b0 a
b0 `
b0 _
b0 ^
b0 ]
b0 \
b0 [
b0 Z
b0 Y
b0 X
b0 W
b0 V
b0 U
b0 T
b0 S
b1111 R
b0 Q
b0 P
b0 O
b1111 N
b0 M
b0 L
b0 K
b0 J
b0 I
b0 H
1G
1F
b0 E
b0 D
b0 C
b0 B
b0 A
b0 @
b0 ?
b110011 >
b0 =
b0 <
b0 ;
b0 :
b0 9
b0 8
b100 7
b0 6
b0 5
b0 4
b0 3
b0 2
b0 1
b0 0
b0 /
b0 .
0-
b0 ,
0+
0*
b0 )
b0 (
b0 '
0&
0%
0$
0#
1"
0!
$end
#5000
1!
#10000
0!
#15000
1!
#20000
0!
0"
#25000
b0 N
b0 R
b0 w
b0 !"
b110011 9
b110011 O
b110011 ]
b1000001000000110110011 >
b1000001000000110110011 0"
b1000001000000110110011 1"
b1000001000000110110011 9"
b1 E
b1 G"
b1111 M
b1111 U
b1111 ~
b1111 #"
b110011 <
b110011 ^
b110011 /"
b110011 3"
b110011 7"
b1000 7
b1000 E"
b100 6
b100 ."
b100 4"
b100 :"
b100 F"
1!
#30000
0!
#35000
bx 0
bx y
bx *"
bx M"
bx 3
bx {
bx '"
bx N"
b1100010000001000110011 >
b1100010000001000110011 0"
b1100010000001000110011 1"
b1100010000001000110011 9"
b10 1
b10 Z
b10 v
b10 K"
b1 4
b1 [
b1 u
b1 J"
b11 5
b11 \
b1100 7
b1100 E"
b1000 6
b1000 ."
b1000 4"
b1000 :"
b1000 F"
b100 8
b100 -"
b100 6"
b1000001000000110110011 <
b1000001000000110110011 ^
b1000001000000110110011 /"
b1000001000000110110011 3"
b1000001000000110110011 7"
b0 M
b0 U
b0 ~
b0 #"
b10 E
b10 G"
1!
#40000
0!
#45000
xG
bx J
bx V
bx d
bx h
xF
bx K
bx T
bx X
bx L
bx S
bx W
bx q
bx p
b11 1
b11 Z
b11 v
b11 K"
b10 4
b10 [
b10 u
b10 J"
b100 5
b100 \
bx >
bx 0"
bx 1"
bx 9"
b11 E
b11 G"
bx /
bx f
bx k
bx x
bx ,"
bx 2
bx z
bx )"
b1100010000001000110011 <
b1100010000001000110011 ^
b1100010000001000110011 /"
b1100010000001000110011 3"
b1100010000001000110011 7"
b1000 8
b1000 -"
b1000 6"
b10000 7
b10000 E"
b1100 6
b1100 ."
b1100 4"
b1100 :"
b1100 F"
1!
#50000
0!
#55000
0F
b1111 N
b1111 R
b1111 w
b1111 !"
bx A
bx P
bx _
bx 1
bx Z
bx v
bx K"
bx 4
bx [
bx u
bx J"
bx B
bx Q
bx Y
bx `
bx 5
bx \
bx 9
bx O
bx ]
b10100 7
b10100 E"
b10000 6
b10000 ."
b10000 4"
b10000 :"
b10000 F"
b1100 8
b1100 -"
b1100 6"
bx <
bx ^
bx /"
bx 3"
bx 7"
bx I
bx b
bx g
bx j
bx ;"
bx ?"
bx .
bx a
bx e
bx m
b100 E
b100 G"
1!
#60000
0!
#65000
1G
b0 J
b0 V
b0 d
b0 h
b101 E
b101 G"
bx ,
bx L"
bx Q"
bx H
bx >"
bx A"
bx O"
b1111 M
b1111 U
b1111 ~
b1111 #"
b10000 8
b10000 -"
b10000 6"
b11000 7
b11000 E"
b10100 6
b10100 ."
b10100 4"
b10100 :"
b10100 F"
1!
#70000
0!
#75000
b11100 7
b11100 E"
b11000 6
b11000 ."
b11000 4"
b11000 :"
b11000 F"
b10100 8
b10100 -"
b10100 6"
b0 I
b0 b
b0 g
b0 j
b0 ;"
b0 ?"
b110 E
b110 G"
1!
#80000
0!
#85000
b111 E
b111 G"
b0 ,
b0 L"
b0 Q"
b0 H
b0 >"
b0 A"
b0 O"
b11000 8
b11000 -"
b11000 6"
b100000 7
b100000 E"
b11100 6
b11100 ."
b11100 4"
b11100 :"
b11100 F"
1!
#90000
0!
#95000
b100100 7
b100100 E"
b100000 6
b100000 ."
b100000 4"
b100000 :"
b100000 F"
b11100 8
b11100 -"
b11100 6"
b1000 E
b1000 G"
1!
#100000
0!
#105000
b1001 E
b1001 G"
b100000 8
b100000 -"
b100000 6"
b101000 7
b101000 E"
b100100 6
b100100 ."
b100100 4"
b100100 :"
b100100 F"
1!
#110000
0!
#115000
b101100 7
b101100 E"
b101000 6
b101000 ."
b101000 4"
b101000 :"
b101000 F"
b100100 8
b100100 -"
b100100 6"
b1010 E
b1010 G"
1!
#120000
0!
#125000
b1011 E
b1011 G"
b101000 8
b101000 -"
b101000 6"
b110000 7
b110000 E"
b101100 6
b101100 ."
b101100 4"
b101100 :"
b101100 F"
1!
#130000
0!
#135000
b110100 7
b110100 E"
b110000 6
b110000 ."
b110000 4"
b110000 :"
b110000 F"
b101100 8
b101100 -"
b101100 6"
b1100 E
b1100 G"
1!
#140000
0!
#145000
b1101 E
b1101 G"
b110000 8
b110000 -"
b110000 6"
b111000 7
b111000 E"
b110100 6
b110100 ."
b110100 4"
b110100 :"
b110100 F"
1!
#150000
0!
#155000
b111100 7
b111100 E"
b111000 6
b111000 ."
b111000 4"
b111000 :"
b111000 F"
b110100 8
b110100 -"
b110100 6"
b1110 E
b1110 G"
1!
#160000
0!
#165000
b1111 E
b1111 G"
b111000 8
b111000 -"
b111000 6"
b1000000 7
b1000000 E"
b111100 6
b111100 ."
b111100 4"
b111100 :"
b111100 F"
1!
#170000
0!
#175000
b1000100 7
b1000100 E"
b1000000 6
b1000000 ."
b1000000 4"
b1000000 :"
b1000000 F"
b111100 8
b111100 -"
b111100 6"
b10000 E
b10000 G"
1!
#180000
0!
#185000
b10001 E
b10001 G"
b1000000 8
b1000000 -"
b1000000 6"
b1001000 7
b1001000 E"
b1000100 6
b1000100 ."
b1000100 4"
b1000100 :"
b1000100 F"
1!
#190000
0!
#195000
b1001100 7
b1001100 E"
b1001000 6
b1001000 ."
b1001000 4"
b1001000 :"
b1001000 F"
b1000100 8
b1000100 -"
b1000100 6"
b10010 E
b10010 G"
1!
#200000
0!
#205000
b10011 E
b10011 G"
b1001000 8
b1001000 -"
b1001000 6"
b1010000 7
b1010000 E"
b1001100 6
b1001100 ."
b1001100 4"
b1001100 :"
b1001100 F"
1!
#210000
0!
#215000
b1010100 7
b1010100 E"
b1010000 6
b1010000 ."
b1010000 4"
b1010000 :"
b1010000 F"
b1001100 8
b1001100 -"
b1001100 6"
b10100 E
b10100 G"
1!
#220000
0!
#225000
b10101 E
b10101 G"
b1010000 8
b1010000 -"
b1010000 6"
b1011000 7
b1011000 E"
b1010100 6
b1010100 ."
b1010100 4"
b1010100 :"
b1010100 F"
1!
#230000
0!
#235000
b1011100 7
b1011100 E"
b1011000 6
b1011000 ."
b1011000 4"
b1011000 :"
b1011000 F"
b1010100 8
b1010100 -"
b1010100 6"
b10110 E
b10110 G"
1!
#240000
0!
#245000
b10111 E
b10111 G"
b1011000 8
b1011000 -"
b1011000 6"
b1100000 7
b1100000 E"
b1011100 6
b1011100 ."
b1011100 4"
b1011100 :"
b1011100 F"
1!
#250000
0!
#255000
b1100100 7
b1100100 E"
b1100000 6
b1100000 ."
b1100000 4"
b1100000 :"
b1100000 F"
b1011100 8
b1011100 -"
b1011100 6"
b11000 E
b11000 G"
1!
#260000
0!
#265000
b11001 E
b11001 G"
b1100000 8
b1100000 -"
b1100000 6"
b1101000 7
b1101000 E"
b1100100 6
b1100100 ."
b1100100 4"
b1100100 :"
b1100100 F"
1!
#270000
0!
#275000
b1101100 7
b1101100 E"
b1101000 6
b1101000 ."
b1101000 4"
b1101000 :"
b1101000 F"
b1100100 8
b1100100 -"
b1100100 6"
b11010 E
b11010 G"
1!
#280000
0!
#285000
b11011 E
b11011 G"
b1101000 8
b1101000 -"
b1101000 6"
b1110000 7
b1110000 E"
b1101100 6
b1101100 ."
b1101100 4"
b1101100 :"
b1101100 F"
1!
#290000
0!
#295000
b1110100 7
b1110100 E"
b1110000 6
b1110000 ."
b1110000 4"
b1110000 :"
b1110000 F"
b1101100 8
b1101100 -"
b1101100 6"
b11100 E
b11100 G"
1!
#300000
0!
#305000
b11101 E
b11101 G"
b1110000 8
b1110000 -"
b1110000 6"
b1111000 7
b1111000 E"
b1110100 6
b1110100 ."
b1110100 4"
b1110100 :"
b1110100 F"
1!
#310000
0!
#315000
b1111100 7
b1111100 E"
b1111000 6
b1111000 ."
b1111000 4"
b1111000 :"
b1111000 F"
b1110100 8
b1110100 -"
b1110100 6"
b11110 E
b11110 G"
1!
#320000
0!
#325000
b11111 E
b11111 G"
b1111000 8
b1111000 -"
b1111000 6"
b10000000 7
b10000000 E"
b1111100 6
b1111100 ."
b1111100 4"
b1111100 :"
b1111100 F"
1!
#330000
0!
#335000
b10000100 7
b10000100 E"
b10000000 6
b10000000 ."
b10000000 4"
b10000000 :"
b10000000 F"
b1111100 8
b1111100 -"
b1111100 6"
b100000 E
b100000 G"
1!
#340000
0!
#345000
b100001 E
b100001 G"
b10000000 8
b10000000 -"
b10000000 6"
b10001000 7
b10001000 E"
b10000100 6
b10000100 ."
b10000100 4"
b10000100 :"
b10000100 F"
1!
#350000
0!
#355000
b10001100 7
b10001100 E"
b10001000 6
b10001000 ."
b10001000 4"
b10001000 :"
b10001000 F"
b10000100 8
b10000100 -"
b10000100 6"
b100010 E
b100010 G"
1!
#360000
0!
#365000
b100011 E
b100011 G"
b10001000 8
b10001000 -"
b10001000 6"
b10010000 7
b10010000 E"
b10001100 6
b10001100 ."
b10001100 4"
b10001100 :"
b10001100 F"
1!
#370000
0!
#375000
b10010100 7
b10010100 E"
b10010000 6
b10010000 ."
b10010000 4"
b10010000 :"
b10010000 F"
b10001100 8
b10001100 -"
b10001100 6"
b100100 E
b100100 G"
1!
#380000
0!
#385000
b100101 E
b100101 G"
b10010000 8
b10010000 -"
b10010000 6"
b10011000 7
b10011000 E"
b10010100 6
b10010100 ."
b10010100 4"
b10010100 :"
b10010100 F"
1!
#390000
0!
#395000
b10011100 7
b10011100 E"
b10011000 6
b10011000 ."
b10011000 4"
b10011000 :"
b10011000 F"
b10010100 8
b10010100 -"
b10010100 6"
b100110 E
b100110 G"
1!
#400000
0!
#405000
b100111 E
b100111 G"
b10011000 8
b10011000 -"
b10011000 6"
b10100000 7
b10100000 E"
b10011100 6
b10011100 ."
b10011100 4"
b10011100 :"
b10011100 F"
1!
#410000
0!
#415000
b10100100 7
b10100100 E"
b10100000 6
b10100000 ."
b10100000 4"
b10100000 :"
b10100000 F"
b10011100 8
b10011100 -"
b10011100 6"
b101000 E
b101000 G"
1!
#420000
0!
#425000
b101001 E
b101001 G"
b10100000 8
b10100000 -"
b10100000 6"
b10101000 7
b10101000 E"
b10100100 6
b10100100 ."
b10100100 4"
b10100100 :"
b10100100 F"
1!
#430000
0!
#435000
b10101100 7
b10101100 E"
b10101000 6
b10101000 ."
b10101000 4"
b10101000 :"
b10101000 F"
b10100100 8
b10100100 -"
b10100100 6"
b101010 E
b101010 G"
1!
#440000
0!
#445000
b101011 E
b101011 G"
b10101000 8
b10101000 -"
b10101000 6"
b10110000 7
b10110000 E"
b10101100 6
b10101100 ."
b10101100 4"
b10101100 :"
b10101100 F"
1!
#450000
0!
#455000
b10110100 7
b10110100 E"
b10110000 6
b10110000 ."
b10110000 4"
b10110000 :"
b10110000 F"
b10101100 8
b10101100 -"
b10101100 6"
b101100 E
b101100 G"
1!
#460000
0!
#465000
b101101 E
b101101 G"
b10110000 8
b10110000 -"
b10110000 6"
b10111000 7
b10111000 E"
b10110100 6
b10110100 ."
b10110100 4"
b10110100 :"
b10110100 F"
1!
#470000
0!
#475000
b10111100 7
b10111100 E"
b10111000 6
b10111000 ."
b10111000 4"
b10111000 :"
b10111000 F"
b10110100 8
b10110100 -"
b10110100 6"
b101110 E
b101110 G"
1!
#480000
0!
#485000
b101111 E
b101111 G"
b10111000 8
b10111000 -"
b10111000 6"
b11000000 7
b11000000 E"
b10111100 6
b10111100 ."
b10111100 4"
b10111100 :"
b10111100 F"
1!
#490000
0!
#495000
b11000100 7
b11000100 E"
b11000000 6
b11000000 ."
b11000000 4"
b11000000 :"
b11000000 F"
b10111100 8
b10111100 -"
b10111100 6"
b110000 E
b110000 G"
1!
#500000
0!
#505000
b110001 E
b110001 G"
b11000000 8
b11000000 -"
b11000000 6"
b11001000 7
b11001000 E"
b11000100 6
b11000100 ."
b11000100 4"
b11000100 :"
b11000100 F"
1!
#510000
0!
#515000
b11001100 7
b11001100 E"
b11001000 6
b11001000 ."
b11001000 4"
b11001000 :"
b11001000 F"
b11000100 8
b11000100 -"
b11000100 6"
b110010 E
b110010 G"
1!
